<?xml version="1.0" encoding="UTF-8"?>
<session version="1.0">
<refactoring comment="Delete resource &apos;DemoRobo&apos;" deleteContents="true" description="Delete resource &apos;DemoRobo&apos;" element1="/DemoRobo" flags="7" id="org.eclipse.ltk.core.refactoring.delete.resources" resources="1" stamp="1455617748926"/>
</session>