int drawable ic_launcher 0x7f020000
int drawable shadow 0x7f020001
int id iv_background 0x7f060000
int id iv_icon 0x7f060006
int id iv_shadow 0x7f060001
int id layout_left_menu 0x7f060003
int id layout_right_menu 0x7f060005
int id sv_left_menu 0x7f060002
int id sv_right_menu 0x7f060004
int id tv_title 0x7f060007
int layout residemenu 0x7f030000
int layout residemenu_item 0x7f030001
int layout residemenu_item1 0x7f030002
int layout residemenu_item2 0x7f030003
int string app_name 0x7f040000
int style boldText 0x7f050000
int style normalText 0x7f050001
